process: ttHTobb_M125_TuneCP5_13TeV-powheg-pythia8
weight 3.0046759886e-05
0 root://cmseos.fnal.gov//store/user/lpcstop/noreplica/mequinna/NanoAODv6/2016/MC/ttHTobb_M125_TuneCP5_13TeV-powheg-pythia8/NANOAODSIM/PUMoriond17_Nano25Oct2019_102X_mcRun2_asymptotic_v7-v1/270000/03A0B9F7-B061-4441-93EB-11D7202FB2D4.root
1 root://cmseos.fnal.gov//store/user/lpcstop/noreplica/mequinna/NanoAODv6/2016/MC/ttHTobb_M125_TuneCP5_13TeV-powheg-pythia8/NANOAODSIM/PUMoriond17_Nano25Oct2019_102X_mcRun2_asymptotic_v7-v1/270000/27BDACC5-CA5C-D749-B809-3168CB578A69.root
2 root://cmseos.fnal.gov//store/user/lpcstop/noreplica/mequinna/NanoAODv6/2016/MC/ttHTobb_M125_TuneCP5_13TeV-powheg-pythia8/NANOAODSIM/PUMoriond17_Nano25Oct2019_102X_mcRun2_asymptotic_v7-v1/270000/3FF67FFF-97B4-5A45-8047-A46FD99BCC9F.root
3 root://cmseos.fnal.gov//store/user/lpcstop/noreplica/mequinna/NanoAODv6/2016/MC/ttHTobb_M125_TuneCP5_13TeV-powheg-pythia8/NANOAODSIM/PUMoriond17_Nano25Oct2019_102X_mcRun2_asymptotic_v7-v1/270000/5586A79B-B1FC-2C46-8EF2-3B977399939E.root
4 root://cmseos.fnal.gov//store/user/lpcstop/noreplica/mequinna/NanoAODv6/2016/MC/ttHTobb_M125_TuneCP5_13TeV-powheg-pythia8/NANOAODSIM/PUMoriond17_Nano25Oct2019_102X_mcRun2_asymptotic_v7-v1/270000/6CFDCE1C-F64A-B845-BCCE-1A732A77597A.root
5 root://cmseos.fnal.gov//store/user/lpcstop/noreplica/mequinna/NanoAODv6/2016/MC/ttHTobb_M125_TuneCP5_13TeV-powheg-pythia8/NANOAODSIM/PUMoriond17_Nano25Oct2019_102X_mcRun2_asymptotic_v7-v1/270000/88BDE01C-4505-0E4E-BBB5-AB9DEA14662B.root
6 root://cmseos.fnal.gov//store/user/lpcstop/noreplica/mequinna/NanoAODv6/2016/MC/ttHTobb_M125_TuneCP5_13TeV-powheg-pythia8/NANOAODSIM/PUMoriond17_Nano25Oct2019_102X_mcRun2_asymptotic_v7-v1/270000/93765152-270F-D246-A0A5-C739BB5CC549.root
7 root://cmseos.fnal.gov//store/user/lpcstop/noreplica/mequinna/NanoAODv6/2016/MC/ttHTobb_M125_TuneCP5_13TeV-powheg-pythia8/NANOAODSIM/PUMoriond17_Nano25Oct2019_102X_mcRun2_asymptotic_v7-v1/270000/9BF98C46-4140-9A4B-9F47-A7B19EF6C3F8.root
8 root://cmseos.fnal.gov//store/user/lpcstop/noreplica/mequinna/NanoAODv6/2016/MC/ttHTobb_M125_TuneCP5_13TeV-powheg-pythia8/NANOAODSIM/PUMoriond17_Nano25Oct2019_102X_mcRun2_asymptotic_v7-v1/270000/A58AB651-BBB0-C24D-B57D-9FB895AB4336.root
9 root://cmseos.fnal.gov//store/user/lpcstop/noreplica/mequinna/NanoAODv6/2016/MC/ttHTobb_M125_TuneCP5_13TeV-powheg-pythia8/NANOAODSIM/PUMoriond17_Nano25Oct2019_102X_mcRun2_asymptotic_v7-v1/270000/AF1556D6-2278-6743-A06B-9E5AD4083002.root
10 root://cmseos.fnal.gov//store/user/lpcstop/noreplica/mequinna/NanoAODv6/2016/MC/ttHTobb_M125_TuneCP5_13TeV-powheg-pythia8/NANOAODSIM/PUMoriond17_Nano25Oct2019_102X_mcRun2_asymptotic_v7-v1/270000/BAE435C7-AD11-A144-B4A9-306B00B70BE9.root
11 root://cmseos.fnal.gov//store/user/lpcstop/noreplica/mequinna/NanoAODv6/2016/MC/ttHTobb_M125_TuneCP5_13TeV-powheg-pythia8/NANOAODSIM/PUMoriond17_Nano25Oct2019_102X_mcRun2_asymptotic_v7-v1/270000/C72A5210-1A74-7146-90B0-F21FC907758F.root
12 root://cmseos.fnal.gov//store/user/lpcstop/noreplica/mequinna/NanoAODv6/2016/MC/ttHTobb_M125_TuneCP5_13TeV-powheg-pythia8/NANOAODSIM/PUMoriond17_Nano25Oct2019_102X_mcRun2_asymptotic_v7-v1/270000/CE577EF9-9F02-FB42-9498-254DB407A8DE.root
13 root://cmseos.fnal.gov//store/user/lpcstop/noreplica/mequinna/NanoAODv6/2016/MC/ttHTobb_M125_TuneCP5_13TeV-powheg-pythia8/NANOAODSIM/PUMoriond17_Nano25Oct2019_102X_mcRun2_asymptotic_v7-v1/270000/D9F17D48-1221-684D-87AC-19ECE8A3A37A.root
14 root://cmseos.fnal.gov//store/user/lpcstop/noreplica/mequinna/NanoAODv6/2016/MC/ttHTobb_M125_TuneCP5_13TeV-powheg-pythia8/NANOAODSIM/PUMoriond17_Nano25Oct2019_102X_mcRun2_asymptotic_v7-v1/270000/EBB94A0A-3A7B-384D-82A4-72C37449535B.root
15 root://cmseos.fnal.gov//store/user/lpcstop/noreplica/mequinna/NanoAODv6/2016/MC/ttHTobb_M125_TuneCP5_13TeV-powheg-pythia8/NANOAODSIM/PUMoriond17_Nano25Oct2019_102X_mcRun2_asymptotic_v7-v1/270000/FA598665-062F-D945-9815-208BD630AC35.root
nidx 9
LHEScaleWeight0] 7610388.0 4973117.5 NORM FACTOR: 0.653464383156
LHEScaleWeight1] 7447659.5 4973117.5 NORM FACTOR: 0.667742328983
LHEScaleWeight2] 7153407.0 4973117.5 NORM FACTOR: 0.695209639267
LHEScaleWeight3] 5107120.5 4973117.5 NORM FACTOR: 0.973761535488
LHEScaleWeight4] 4973117.5 4973117.5 NORM FACTOR: 1.0
LHEScaleWeight5] 4980502.0 4973117.5 NORM FACTOR: 0.998517318134
LHEScaleWeight6] 4654981.5 4973117.5 NORM FACTOR: 1.06834312875
LHEScaleWeight7] 4594163.5 4973117.5 NORM FACTOR: 1.0824859629
LHEScaleWeight8] 4465608.0 4973117.5 NORM FACTOR: 1.11364846623
ME 2016 ttHTobb_M125_TuneCP5_13TeV-powheg-pythia8
[0.6534643831562859, 0.6677423289826824, 0.6952096392669954, 0.973761535487561, 1.0, 0.9985173181337945, 1.068343128753573, 1.0824859628961834, 1.1136484662334893]


process: ttHToNonbb_M125_TuneCP5_13TeV-powheg-pythia8
weight 3.00705982624e-05
0 root://cmseos.fnal.gov//store/user/lpcstop/noreplica/mequinna/NanoAODv6/2016/MC/ttHToNonbb_M125_TuneCP5_13TeV-powheg-pythia8/NANOAODSIM/PUMoriond17_Nano25Oct2019_102X_mcRun2_asymptotic_v7-v1/100000/01A2F38C-692D-5D4E-BE2B-5030BDC60467.root
1 root://cmseos.fnal.gov//store/user/lpcstop/noreplica/mequinna/NanoAODv6/2016/MC/ttHToNonbb_M125_TuneCP5_13TeV-powheg-pythia8/NANOAODSIM/PUMoriond17_Nano25Oct2019_102X_mcRun2_asymptotic_v7-v1/100000/456816BA-5F35-A049-B8C4-FA0202620BA6.root
2 root://cmseos.fnal.gov//store/user/lpcstop/noreplica/mequinna/NanoAODv6/2016/MC/ttHToNonbb_M125_TuneCP5_13TeV-powheg-pythia8/NANOAODSIM/PUMoriond17_Nano25Oct2019_102X_mcRun2_asymptotic_v7-v1/100000/458C5F4D-A290-9F41-A7B6-E114E91C26D2.root
3 root://cmseos.fnal.gov//store/user/lpcstop/noreplica/mequinna/NanoAODv6/2016/MC/ttHToNonbb_M125_TuneCP5_13TeV-powheg-pythia8/NANOAODSIM/PUMoriond17_Nano25Oct2019_102X_mcRun2_asymptotic_v7-v1/100000/59479267-E5A6-F949-81ED-B071E7B12395.root
4 root://cmseos.fnal.gov//store/user/lpcstop/noreplica/mequinna/NanoAODv6/2016/MC/ttHToNonbb_M125_TuneCP5_13TeV-powheg-pythia8/NANOAODSIM/PUMoriond17_Nano25Oct2019_102X_mcRun2_asymptotic_v7-v1/100000/68DBD605-E1A1-E143-9331-A82144CFE753.root
5 root://cmseos.fnal.gov//store/user/lpcstop/noreplica/mequinna/NanoAODv6/2016/MC/ttHToNonbb_M125_TuneCP5_13TeV-powheg-pythia8/NANOAODSIM/PUMoriond17_Nano25Oct2019_102X_mcRun2_asymptotic_v7-v1/100000/738A88D4-4CE2-234A-B869-17B51947CCA5.root
6 root://cmseos.fnal.gov//store/user/lpcstop/noreplica/mequinna/NanoAODv6/2016/MC/ttHToNonbb_M125_TuneCP5_13TeV-powheg-pythia8/NANOAODSIM/PUMoriond17_Nano25Oct2019_102X_mcRun2_asymptotic_v7-v1/100000/94BD357E-51D4-1242-A18E-909A9DBC3D14.root
7 root://cmseos.fnal.gov//store/user/lpcstop/noreplica/mequinna/NanoAODv6/2016/MC/ttHToNonbb_M125_TuneCP5_13TeV-powheg-pythia8/NANOAODSIM/PUMoriond17_Nano25Oct2019_102X_mcRun2_asymptotic_v7-v1/100000/99AF21A4-4143-BA48-B805-29A64D022FA8.root
8 root://cmseos.fnal.gov//store/user/lpcstop/noreplica/mequinna/NanoAODv6/2016/MC/ttHToNonbb_M125_TuneCP5_13TeV-powheg-pythia8/NANOAODSIM/PUMoriond17_Nano25Oct2019_102X_mcRun2_asymptotic_v7-v1/100000/BB9A510B-E10E-944D-AB8A-CA27F0FACFD1.root
9 root://cmseos.fnal.gov//store/user/lpcstop/noreplica/mequinna/NanoAODv6/2016/MC/ttHToNonbb_M125_TuneCP5_13TeV-powheg-pythia8/NANOAODSIM/PUMoriond17_Nano25Oct2019_102X_mcRun2_asymptotic_v7-v1/100000/C6DEBE67-5952-A34D-8A5B-CE056B8F20B5.root
10 root://cmseos.fnal.gov//store/user/lpcstop/noreplica/mequinna/NanoAODv6/2016/MC/ttHToNonbb_M125_TuneCP5_13TeV-powheg-pythia8/NANOAODSIM/PUMoriond17_Nano25Oct2019_102X_mcRun2_asymptotic_v7-v1/100000/EBC3A320-AC24-064D-93FE-6B8C7F4EF4B2.root
0 root://cmseos.fnal.gov//store/user/lpcstop/noreplica/mequinna/NanoAODv6/2016/MC/ttHToNonbb_M125_TuneCP5_13TeV-powheg-pythia8/NANOAODSIM/PUMoriond17_Nano25Oct2019_102X_mcRun2_asymptotic_v7-v1/270000/09BAEFAC-E5DF-064C-AA23-61C17912269F.root
1 root://cmseos.fnal.gov//store/user/lpcstop/noreplica/mequinna/NanoAODv6/2016/MC/ttHToNonbb_M125_TuneCP5_13TeV-powheg-pythia8/NANOAODSIM/PUMoriond17_Nano25Oct2019_102X_mcRun2_asymptotic_v7-v1/270000/4BF6FB65-23F5-3B47-B0CD-0EBD769D7493.root
2 root://cmseos.fnal.gov//store/user/lpcstop/noreplica/mequinna/NanoAODv6/2016/MC/ttHToNonbb_M125_TuneCP5_13TeV-powheg-pythia8/NANOAODSIM/PUMoriond17_Nano25Oct2019_102X_mcRun2_asymptotic_v7-v1/270000/54388644-5FE6-BF48-981D-5119B97C2404.root
3 root://cmseos.fnal.gov//store/user/lpcstop/noreplica/mequinna/NanoAODv6/2016/MC/ttHToNonbb_M125_TuneCP5_13TeV-powheg-pythia8/NANOAODSIM/PUMoriond17_Nano25Oct2019_102X_mcRun2_asymptotic_v7-v1/270000/9A6B3B17-D753-E247-ACD1-1A12AAF52907.root
nidx 9
LHEScaleWeight0] 7603635.5 4969228.0 NORM FACTOR: 0.653533168443
LHEScaleWeight1] 7440747.5 4969228.0 NORM FACTOR: 0.667839891086
LHEScaleWeight2] 7146825.5 4969228.0 NORM FACTOR: 0.695305629052
LHEScaleWeight3] 5102960.0 4969228.0 NORM FACTOR: 0.973793249408
LHEScaleWeight4] 4969228.0 4969228.0 NORM FACTOR: 1.0
LHEScaleWeight5] 4976625.0 4969228.0 NORM FACTOR: 0.99851365132
LHEScaleWeight6] 4650987.0 4969228.0 NORM FACTOR: 1.0684244011
LHEScaleWeight7] 4589648.0 4969228.0 NORM FACTOR: 1.08270351016
LHEScaleWeight8] 4461144.0 4969228.0 NORM FACTOR: 1.11389096608
ME 2016 ttHToNonbb_M125_TuneCP5_13TeV-powheg-pythia8
[0.6535331684429113, 0.6678398910862114, 0.6953056290516678, 0.9737932494081866, 1.0, 0.9985136513199206, 1.0684244011002395, 1.0827035101602562, 1.113890966084036]


process: TTZToQQ_TuneCUETP8M1_13TeV-amcatnlo-pythia8
weight 0.00150841202401
0 root://cmseos.fnal.gov//store/user/lpcstop/noreplica/mequinna/NanoAODv6/2016/MC/TTZToQQ_TuneCUETP8M1_13TeV-amcatnlo-pythia8/NANOAODSIM/PUMoriond17_Nano25Oct2019_102X_mcRun2_asymptotic_v7-v1/270000/46B96B00-F2B0-8B4A-9535-2185CB0E4676.root
1 root://cmseos.fnal.gov//store/user/lpcstop/noreplica/mequinna/NanoAODv6/2016/MC/TTZToQQ_TuneCUETP8M1_13TeV-amcatnlo-pythia8/NANOAODSIM/PUMoriond17_Nano25Oct2019_102X_mcRun2_asymptotic_v7-v1/270000/A5BB5BBC-1ED5-D347-9247-3C3A59E29D61.root
2 root://cmseos.fnal.gov//store/user/lpcstop/noreplica/mequinna/NanoAODv6/2016/MC/TTZToQQ_TuneCUETP8M1_13TeV-amcatnlo-pythia8/NANOAODSIM/PUMoriond17_Nano25Oct2019_102X_mcRun2_asymptotic_v7-v1/270000/ACBA3960-8E28-F747-B60A-0940AE846126.root
nidx 9
LHEScaleWeight0] 434184.96875 395283.625 NORM FACTOR: 0.910403752894
LHEScaleWeight1] 427531.1875 395283.625 NORM FACTOR: 0.924572607934
LHEScaleWeight2] 422605.875 395283.625 NORM FACTOR: 0.93534815388
LHEScaleWeight3] 407311.25 395283.625 NORM FACTOR: 0.970470678136
LHEScaleWeight4] 395283.59375 395283.625 NORM FACTOR: 1.00000007906
LHEScaleWeight5] 387373.90625 395283.625 NORM FACTOR: 1.02041882177
LHEScaleWeight6] 376912.3125 395283.625 NORM FACTOR: 1.04874160883
LHEScaleWeight7] 363877.65625 395283.625 NORM FACTOR: 1.08630914323
LHEScaleWeight8] 352724.6875 395283.625 NORM FACTOR: 1.1206576659
ME 2016 TTZToQQ_TuneCUETP8M1_13TeV-amcatnlo-pythia8
[0.9104037528936221, 0.9245726079340119, 0.9353481538797822, 0.9704706781361919, 1.0000000790571641, 1.020418821769826, 1.0487416088324257, 1.0863091432259384, 1.1206576659026737]


process: TTZToLLNuNu_M-10_TuneCUETP8M1_13TeV-amcatnlo-pythia8
weight 3.93874618916e-05
0 root://cmseos.fnal.gov//store/user/lpcstop/noreplica/mequinna/NanoAODv6/2016/MC/TTZToLLNuNu_M-10_TuneCUETP8M1_13TeV-amcatnlo-pythia8/NANOAODSIM/PUMoriond17_Nano25Oct2019_102X_mcRun2_asymptotic_v7_ext1-v1/280000/227FEFB1-42AF-5244-AA8C-F2F34C3B42F3.root
1 root://cmseos.fnal.gov//store/user/lpcstop/noreplica/mequinna/NanoAODv6/2016/MC/TTZToLLNuNu_M-10_TuneCUETP8M1_13TeV-amcatnlo-pythia8/NANOAODSIM/PUMoriond17_Nano25Oct2019_102X_mcRun2_asymptotic_v7_ext1-v1/280000/D894DC30-3E50-8343-B0D9-7EF41E4A56F4.root
2 root://cmseos.fnal.gov//store/user/lpcstop/noreplica/mequinna/NanoAODv6/2016/MC/TTZToLLNuNu_M-10_TuneCUETP8M1_13TeV-amcatnlo-pythia8/NANOAODSIM/PUMoriond17_Nano25Oct2019_102X_mcRun2_asymptotic_v7_ext1-v1/280000/DFBCFEFC-AA53-4F40-8D26-C523264832AA.root
3 root://cmseos.fnal.gov//store/user/lpcstop/noreplica/mequinna/NanoAODv6/2016/MC/TTZToLLNuNu_M-10_TuneCUETP8M1_13TeV-amcatnlo-pythia8/NANOAODSIM/PUMoriond17_Nano25Oct2019_102X_mcRun2_asymptotic_v7_ext1-v1/280000/E70D5712-2E02-EC47-94A8-27A907F5A22B.root
0 root://cmseos.fnal.gov//store/user/lpcstop/noreplica/mequinna/NanoAODv6/2016/MC/TTZToLLNuNu_M-10_TuneCUETP8M1_13TeV-amcatnlo-pythia8/NANOAODSIM/PUMoriond17_Nano25Oct2019_102X_mcRun2_asymptotic_v7_ext2-v1/260000/2801D657-B3C1-F347-B5F2-8D6B532A6526.root
1 root://cmseos.fnal.gov//store/user/lpcstop/noreplica/mequinna/NanoAODv6/2016/MC/TTZToLLNuNu_M-10_TuneCUETP8M1_13TeV-amcatnlo-pythia8/NANOAODSIM/PUMoriond17_Nano25Oct2019_102X_mcRun2_asymptotic_v7_ext2-v1/260000/5B850570-5202-6543-9FF9-A76B48904D79.root
2 root://cmseos.fnal.gov//store/user/lpcstop/noreplica/mequinna/NanoAODv6/2016/MC/TTZToLLNuNu_M-10_TuneCUETP8M1_13TeV-amcatnlo-pythia8/NANOAODSIM/PUMoriond17_Nano25Oct2019_102X_mcRun2_asymptotic_v7_ext2-v1/260000/6435FE79-7434-2644-A352-39045827EB7E.root
3 root://cmseos.fnal.gov//store/user/lpcstop/noreplica/mequinna/NanoAODv6/2016/MC/TTZToLLNuNu_M-10_TuneCUETP8M1_13TeV-amcatnlo-pythia8/NANOAODSIM/PUMoriond17_Nano25Oct2019_102X_mcRun2_asymptotic_v7_ext2-v1/260000/7F5E500D-01F9-4342-9AC0-C6DC3E7DCD2D.root
4 root://cmseos.fnal.gov//store/user/lpcstop/noreplica/mequinna/NanoAODv6/2016/MC/TTZToLLNuNu_M-10_TuneCUETP8M1_13TeV-amcatnlo-pythia8/NANOAODSIM/PUMoriond17_Nano25Oct2019_102X_mcRun2_asymptotic_v7_ext2-v1/260000/8AD45D00-721B-1745-BD3D-C3B8F0BFB0B9.root
5 root://cmseos.fnal.gov//store/user/lpcstop/noreplica/mequinna/NanoAODv6/2016/MC/TTZToLLNuNu_M-10_TuneCUETP8M1_13TeV-amcatnlo-pythia8/NANOAODSIM/PUMoriond17_Nano25Oct2019_102X_mcRun2_asymptotic_v7_ext2-v1/260000/9FB21808-9AB1-784F-9889-9884ECC18DFB.root
6 root://cmseos.fnal.gov//store/user/lpcstop/noreplica/mequinna/NanoAODv6/2016/MC/TTZToLLNuNu_M-10_TuneCUETP8M1_13TeV-amcatnlo-pythia8/NANOAODSIM/PUMoriond17_Nano25Oct2019_102X_mcRun2_asymptotic_v7_ext2-v1/260000/ECFBFF2E-1BAE-DA4B-A1E9-ECF46A73B232.root
0 root://cmseos.fnal.gov//store/user/lpcstop/noreplica/mequinna/NanoAODv6/2016/MC/TTZToLLNuNu_M-10_TuneCUETP8M1_13TeV-amcatnlo-pythia8/NANOAODSIM/PUMoriond17_Nano25Oct2019_102X_mcRun2_asymptotic_v7_ext3-v1/60000/0F078ABE-67AA-754E-8112-305CB305B4CE.root
1 root://cmseos.fnal.gov//store/user/lpcstop/noreplica/mequinna/NanoAODv6/2016/MC/TTZToLLNuNu_M-10_TuneCUETP8M1_13TeV-amcatnlo-pythia8/NANOAODSIM/PUMoriond17_Nano25Oct2019_102X_mcRun2_asymptotic_v7_ext3-v1/60000/28FADB8C-A40B-3C48-BECC-94E0C7F855FA.root
2 root://cmseos.fnal.gov//store/user/lpcstop/noreplica/mequinna/NanoAODv6/2016/MC/TTZToLLNuNu_M-10_TuneCUETP8M1_13TeV-amcatnlo-pythia8/NANOAODSIM/PUMoriond17_Nano25Oct2019_102X_mcRun2_asymptotic_v7_ext3-v1/60000/733B7B31-D454-5B4D-8176-797AE5827239.root
3 root://cmseos.fnal.gov//store/user/lpcstop/noreplica/mequinna/NanoAODv6/2016/MC/TTZToLLNuNu_M-10_TuneCUETP8M1_13TeV-amcatnlo-pythia8/NANOAODSIM/PUMoriond17_Nano25Oct2019_102X_mcRun2_asymptotic_v7_ext3-v1/60000/7691A31D-9D27-6847-98C4-851A45E8E4FF.root
4 root://cmseos.fnal.gov//store/user/lpcstop/noreplica/mequinna/NanoAODv6/2016/MC/TTZToLLNuNu_M-10_TuneCUETP8M1_13TeV-amcatnlo-pythia8/NANOAODSIM/PUMoriond17_Nano25Oct2019_102X_mcRun2_asymptotic_v7_ext3-v1/60000/9F0A7EA0-220A-2E46-8F9E-F5DE3E00BC98.root
5 root://cmseos.fnal.gov//store/user/lpcstop/noreplica/mequinna/NanoAODv6/2016/MC/TTZToLLNuNu_M-10_TuneCUETP8M1_13TeV-amcatnlo-pythia8/NANOAODSIM/PUMoriond17_Nano25Oct2019_102X_mcRun2_asymptotic_v7_ext3-v1/60000/A979C015-33A6-C245-AEF6-B5AD38677E02.root
6 root://cmseos.fnal.gov//store/user/lpcstop/noreplica/mequinna/NanoAODv6/2016/MC/TTZToLLNuNu_M-10_TuneCUETP8M1_13TeV-amcatnlo-pythia8/NANOAODSIM/PUMoriond17_Nano25Oct2019_102X_mcRun2_asymptotic_v7_ext3-v1/60000/AFB323EC-6751-4049-BEF1-3A8D50331502.root
7 root://cmseos.fnal.gov//store/user/lpcstop/noreplica/mequinna/NanoAODv6/2016/MC/TTZToLLNuNu_M-10_TuneCUETP8M1_13TeV-amcatnlo-pythia8/NANOAODSIM/PUMoriond17_Nano25Oct2019_102X_mcRun2_asymptotic_v7_ext3-v1/60000/D9508F9C-A26E-2F4F-BF94-469E92590125.root
nidx 9
LHEScaleWeight0] 3873893.75 3305149.5 NORM FACTOR: 0.853185377116
LHEScaleWeight1] 3770972.25 3305149.5 NORM FACTOR: 0.876471445792
LHEScaleWeight2] 3702931.5 3305149.5 NORM FACTOR: 0.89257646273
LHEScaleWeight3] 3494160.25 3305149.5 NORM FACTOR: 0.945906673857
LHEScaleWeight4] 3305150.5 3305149.5 NORM FACTOR: 0.999999697442
LHEScaleWeight5] 3278935.75 3305149.5 NORM FACTOR: 1.00799459093
LHEScaleWeight6] 3304989.0 3305149.5 NORM FACTOR: 1.00004856295
LHEScaleWeight7] 3249590.25 3305149.5 NORM FACTOR: 1.01709730942
LHEScaleWeight8] 3211814.75 3305149.5 NORM FACTOR: 1.02905981735
ME 2016 TTZToLLNuNu_M-10_TuneCUETP8M1_13TeV-amcatnlo-pythia8
[0.853185377115725, 0.8764714457922622, 0.8925764627295968, 0.9459066738567585, 0.9999996974419167, 1.0079945909278643, 1.0000485629452927, 1.0170973094223188, 1.029059817350923]


process: TTWJetsToQQ_TuneCUETP8M1_13TeV-amcatnloFXFX-madspin-pythia8
weight 0.000943970625828
0 root://cmseos.fnal.gov//store/user/lpcstop/noreplica/mequinna/NanoAODv6/2016/MC/TTWJetsToQQ_TuneCUETP8M1_13TeV-amcatnloFXFX-madspin-pythia8/NANOAODSIM/PUMoriond17_Nano25Oct2019_102X_mcRun2_asymptotic_v7-v1/270000/493FE79D-E4A7-074D-8BEB-DE526CB56C92.root
1 root://cmseos.fnal.gov//store/user/lpcstop/noreplica/mequinna/NanoAODv6/2016/MC/TTWJetsToQQ_TuneCUETP8M1_13TeV-amcatnloFXFX-madspin-pythia8/NANOAODSIM/PUMoriond17_Nano25Oct2019_102X_mcRun2_asymptotic_v7-v1/270000/577AC739-88F4-4B49-BE65-60AB144E6536.root
nidx 9
LHEScaleWeight0] 638300.125 567279.75 NORM FACTOR: 0.888735138506
LHEScaleWeight1] 625513.1875 567279.75 NORM FACTOR: 0.906902941994
LHEScaleWeight2] 616693.125 567279.75 NORM FACTOR: 0.919873640557
LHEScaleWeight3] 585430.375 567279.75 NORM FACTOR: 0.968996099664
LHEScaleWeight4] 567270.75 567279.75 NORM FACTOR: 1.00001586544
LHEScaleWeight5] 556849.3125 567279.75 NORM FACTOR: 1.01873116706
LHEScaleWeight6] 526792.75 567279.75 NORM FACTOR: 1.07685565149
LHEScaleWeight7] 510179.34375 567279.75 NORM FACTOR: 1.11192222294
LHEScaleWeight8] 496462.8125 567279.75 NORM FACTOR: 1.14264298497
ME 2016 TTWJetsToQQ_TuneCUETP8M1_13TeV-amcatnloFXFX-madspin-pythia8
[0.8887351385055737, 0.9069029419943284, 0.9198736405566382, 0.9689960996642855, 1.0000158654399156, 1.018731167060568, 1.076855651487231, 1.1119222229388819, 1.1426429849667743]


process: TTWJetsToLNu_TuneCUETP8M1_13TeV-amcatnloFXFX-madspin-pythia8
weight 7.52140175661e-05
0 root://cmseos.fnal.gov//store/user/lpcstop/noreplica/mequinna/NanoAODv6/2016/MC/TTWJetsToLNu_TuneCUETP8M1_13TeV-amcatnloFXFX-madspin-pythia8/NANOAODSIM/PUMoriond17_Nano25Oct2019_102X_mcRun2_asymptotic_v7_ext1-v1/260000/5A9652B9-0DA7-A249-8C10-F8C408820245.root
1 root://cmseos.fnal.gov//store/user/lpcstop/noreplica/mequinna/NanoAODv6/2016/MC/TTWJetsToLNu_TuneCUETP8M1_13TeV-amcatnloFXFX-madspin-pythia8/NANOAODSIM/PUMoriond17_Nano25Oct2019_102X_mcRun2_asymptotic_v7_ext1-v1/260000/7A98190D-D312-D649-9784-D253034F0E8A.root
2 root://cmseos.fnal.gov//store/user/lpcstop/noreplica/mequinna/NanoAODv6/2016/MC/TTWJetsToLNu_TuneCUETP8M1_13TeV-amcatnloFXFX-madspin-pythia8/NANOAODSIM/PUMoriond17_Nano25Oct2019_102X_mcRun2_asymptotic_v7_ext1-v1/260000/8DC02EBC-30B0-6247-A129-A42810DB1050.root
3 root://cmseos.fnal.gov//store/user/lpcstop/noreplica/mequinna/NanoAODv6/2016/MC/TTWJetsToLNu_TuneCUETP8M1_13TeV-amcatnloFXFX-madspin-pythia8/NANOAODSIM/PUMoriond17_Nano25Oct2019_102X_mcRun2_asymptotic_v7_ext1-v1/260000/C1F4A2DC-D7C3-4D41-B7E8-3091CD1D42D2.root
0 root://cmseos.fnal.gov//store/user/lpcstop/noreplica/mequinna/NanoAODv6/2016/MC/TTWJetsToLNu_TuneCUETP8M1_13TeV-amcatnloFXFX-madspin-pythia8/NANOAODSIM/PUMoriond17_Nano25Oct2019_102X_mcRun2_asymptotic_v7_ext2-v1/100000/11832F36-B751-EC48-BACE-0973672C27AC.root
1 root://cmseos.fnal.gov//store/user/lpcstop/noreplica/mequinna/NanoAODv6/2016/MC/TTWJetsToLNu_TuneCUETP8M1_13TeV-amcatnloFXFX-madspin-pythia8/NANOAODSIM/PUMoriond17_Nano25Oct2019_102X_mcRun2_asymptotic_v7_ext2-v1/100000/25289ECB-5897-404B-8476-2AB477424445.root
2 root://cmseos.fnal.gov//store/user/lpcstop/noreplica/mequinna/NanoAODv6/2016/MC/TTWJetsToLNu_TuneCUETP8M1_13TeV-amcatnloFXFX-madspin-pythia8/NANOAODSIM/PUMoriond17_Nano25Oct2019_102X_mcRun2_asymptotic_v7_ext2-v1/100000/87351EC8-A0C8-E646-A565-DEF1A014CBC0.root
nidx 9
LHEScaleWeight0] 1999490.875 1770371.125 NORM FACTOR: 0.885410954926
LHEScaleWeight1] 1955484.375 1770371.125 NORM FACTOR: 0.905336369665
LHEScaleWeight2] 1929584.875 1770371.125 NORM FACTOR: 0.917488081471
LHEScaleWeight3] 1832104.5 1770371.125 NORM FACTOR: 0.966304664936
LHEScaleWeight4] 1770370.25 1770371.125 NORM FACTOR: 1.00000049425
LHEScaleWeight5] 1745862.75 1770371.125 NORM FACTOR: 1.01403797349
LHEScaleWeight6] 1655244.875 1770371.125 NORM FACTOR: 1.0695523978
LHEScaleWeight7] 1611676.0 1770371.125 NORM FACTOR: 1.09846589823
LHEScaleWeight8] 1566839.5 1770371.125 NORM FACTOR: 1.12989947279
ME 2016 TTWJetsToLNu_TuneCUETP8M1_13TeV-amcatnloFXFX-madspin-pythia8
[0.8854109549262134, 0.9053363696654442, 0.9174880814714097, 0.9663046649358702, 1.0000004942468956, 1.0140379734890386, 1.0695523977985433, 1.0984658982326472, 1.1298994727922036]


process: TTGJets_TuneCUETP8M1_13TeV-amcatnloFXFX-madspin-pythia8
weight 0.000774330514089
0 root://cmseos.fnal.gov//store/user/lpcstop/noreplica/mequinna/NanoAODv6/2016/MC/TTGJets_TuneCUETP8M1_13TeV-amcatnloFXFX-madspin-pythia8/NANOAODSIM/PUMoriond17_Nano25Oct2019_102X_mcRun2_asymptotic_v7-v1/70000/0A17AAAA-B2C8-E149-8287-6252F8D19F3A.root
1 root://cmseos.fnal.gov//store/user/lpcstop/noreplica/mequinna/NanoAODv6/2016/MC/TTGJets_TuneCUETP8M1_13TeV-amcatnloFXFX-madspin-pythia8/NANOAODSIM/PUMoriond17_Nano25Oct2019_102X_mcRun2_asymptotic_v7-v1/70000/3E15B16B-3169-F04E-B12E-77616063E152.root
2 root://cmseos.fnal.gov//store/user/lpcstop/noreplica/mequinna/NanoAODv6/2016/MC/TTGJets_TuneCUETP8M1_13TeV-amcatnloFXFX-madspin-pythia8/NANOAODSIM/PUMoriond17_Nano25Oct2019_102X_mcRun2_asymptotic_v7-v1/70000/444AB649-B9C3-E34E-AE81-493425DCC355.root
3 root://cmseos.fnal.gov//store/user/lpcstop/noreplica/mequinna/NanoAODv6/2016/MC/TTGJets_TuneCUETP8M1_13TeV-amcatnloFXFX-madspin-pythia8/NANOAODSIM/PUMoriond17_Nano25Oct2019_102X_mcRun2_asymptotic_v7-v1/70000/50EFF24C-8F85-D04C-90BD-195C46F27771.root
4 root://cmseos.fnal.gov//store/user/lpcstop/noreplica/mequinna/NanoAODv6/2016/MC/TTGJets_TuneCUETP8M1_13TeV-amcatnloFXFX-madspin-pythia8/NANOAODSIM/PUMoriond17_Nano25Oct2019_102X_mcRun2_asymptotic_v7-v1/70000/5FE446B6-0CEF-9140-9772-669B4EE5D072.root
5 root://cmseos.fnal.gov//store/user/lpcstop/noreplica/mequinna/NanoAODv6/2016/MC/TTGJets_TuneCUETP8M1_13TeV-amcatnloFXFX-madspin-pythia8/NANOAODSIM/PUMoriond17_Nano25Oct2019_102X_mcRun2_asymptotic_v7-v1/70000/B6ABF31E-1033-A54C-85B9-0614690BC7F5.root
6 root://cmseos.fnal.gov//store/user/lpcstop/noreplica/mequinna/NanoAODv6/2016/MC/TTGJets_TuneCUETP8M1_13TeV-amcatnloFXFX-madspin-pythia8/NANOAODSIM/PUMoriond17_Nano25Oct2019_102X_mcRun2_asymptotic_v7-v1/70000/DCD47EF0-19ED-6245-BC87-BA692CC976C4.root
0 root://cmseos.fnal.gov//store/user/lpcstop/noreplica/mequinna/NanoAODv6/2016/MC/TTGJets_TuneCUETP8M1_13TeV-amcatnloFXFX-madspin-pythia8/NANOAODSIM/PUMoriond17_Nano25Oct2019_102X_mcRun2_asymptotic_v7_ext1-v1/260000/137FB85C-0785-F349-AA2E-308E77A16C94.root
1 root://cmseos.fnal.gov//store/user/lpcstop/noreplica/mequinna/NanoAODv6/2016/MC/TTGJets_TuneCUETP8M1_13TeV-amcatnloFXFX-madspin-pythia8/NANOAODSIM/PUMoriond17_Nano25Oct2019_102X_mcRun2_asymptotic_v7_ext1-v1/260000/30B61ECA-EE57-6C48-BC92-17FBF0DD45CC.root
2 root://cmseos.fnal.gov//store/user/lpcstop/noreplica/mequinna/NanoAODv6/2016/MC/TTGJets_TuneCUETP8M1_13TeV-amcatnloFXFX-madspin-pythia8/NANOAODSIM/PUMoriond17_Nano25Oct2019_102X_mcRun2_asymptotic_v7_ext1-v1/260000/592EA8DF-DF6F-4648-83B3-5E534A531DB8.root
3 root://cmseos.fnal.gov//store/user/lpcstop/noreplica/mequinna/NanoAODv6/2016/MC/TTGJets_TuneCUETP8M1_13TeV-amcatnloFXFX-madspin-pythia8/NANOAODSIM/PUMoriond17_Nano25Oct2019_102X_mcRun2_asymptotic_v7_ext1-v1/260000/9F85056F-C631-524A-B3A4-2530DB30C04E.root
4 root://cmseos.fnal.gov//store/user/lpcstop/noreplica/mequinna/NanoAODv6/2016/MC/TTGJets_TuneCUETP8M1_13TeV-amcatnloFXFX-madspin-pythia8/NANOAODSIM/PUMoriond17_Nano25Oct2019_102X_mcRun2_asymptotic_v7_ext1-v1/260000/B356D230-4142-9443-94F9-FE339C0CCB78.root
5 root://cmseos.fnal.gov//store/user/lpcstop/noreplica/mequinna/NanoAODv6/2016/MC/TTGJets_TuneCUETP8M1_13TeV-amcatnloFXFX-madspin-pythia8/NANOAODSIM/PUMoriond17_Nano25Oct2019_102X_mcRun2_asymptotic_v7_ext1-v1/260000/E1B83DA5-1287-EE49-972B-3E95DCE4B732.root
0 root://cmseos.fnal.gov//store/user/lpcstop/noreplica/mequinna/NanoAODv6/2016/MC/TTGJets_TuneCUETP8M1_13TeV-amcatnloFXFX-madspin-pythia8/NANOAODSIM/PUMoriond17_Nano25Oct2019_102X_mcRun2_asymptotic_v7_ext1-v1/40000/1584EF55-D435-EE46-ACF6-F857F6687FB3.root
1 root://cmseos.fnal.gov//store/user/lpcstop/noreplica/mequinna/NanoAODv6/2016/MC/TTGJets_TuneCUETP8M1_13TeV-amcatnloFXFX-madspin-pythia8/NANOAODSIM/PUMoriond17_Nano25Oct2019_102X_mcRun2_asymptotic_v7_ext1-v1/40000/163F6CBD-054A-5A45-B3A5-8F8CCA2927BD.root
2 root://cmseos.fnal.gov//store/user/lpcstop/noreplica/mequinna/NanoAODv6/2016/MC/TTGJets_TuneCUETP8M1_13TeV-amcatnloFXFX-madspin-pythia8/NANOAODSIM/PUMoriond17_Nano25Oct2019_102X_mcRun2_asymptotic_v7_ext1-v1/40000/1FBFA8E4-D6F6-F941-8906-D16D29436A8E.root
3 root://cmseos.fnal.gov//store/user/lpcstop/noreplica/mequinna/NanoAODv6/2016/MC/TTGJets_TuneCUETP8M1_13TeV-amcatnloFXFX-madspin-pythia8/NANOAODSIM/PUMoriond17_Nano25Oct2019_102X_mcRun2_asymptotic_v7_ext1-v1/40000/40E3E0CB-F643-5947-A469-96843FCAEE6D.root
4 root://cmseos.fnal.gov//store/user/lpcstop/noreplica/mequinna/NanoAODv6/2016/MC/TTGJets_TuneCUETP8M1_13TeV-amcatnloFXFX-madspin-pythia8/NANOAODSIM/PUMoriond17_Nano25Oct2019_102X_mcRun2_asymptotic_v7_ext1-v1/40000/4DFE512E-F3D2-2247-9DD3-F70234EA7479.root
5 root://cmseos.fnal.gov//store/user/lpcstop/noreplica/mequinna/NanoAODv6/2016/MC/TTGJets_TuneCUETP8M1_13TeV-amcatnloFXFX-madspin-pythia8/NANOAODSIM/PUMoriond17_Nano25Oct2019_102X_mcRun2_asymptotic_v7_ext1-v1/40000/6FE8AED5-AF43-6B41-812D-54133E61180A.root
6 root://cmseos.fnal.gov//store/user/lpcstop/noreplica/mequinna/NanoAODv6/2016/MC/TTGJets_TuneCUETP8M1_13TeV-amcatnloFXFX-madspin-pythia8/NANOAODSIM/PUMoriond17_Nano25Oct2019_102X_mcRun2_asymptotic_v7_ext1-v1/40000/7B16DCD3-9F26-0C49-A06E-63E5CD603ABF.root
7 root://cmseos.fnal.gov//store/user/lpcstop/noreplica/mequinna/NanoAODv6/2016/MC/TTGJets_TuneCUETP8M1_13TeV-amcatnloFXFX-madspin-pythia8/NANOAODSIM/PUMoriond17_Nano25Oct2019_102X_mcRun2_asymptotic_v7_ext1-v1/40000/CCDF40F2-CBE0-1E41-8727-AFF7C6767336.root
8 root://cmseos.fnal.gov//store/user/lpcstop/noreplica/mequinna/NanoAODv6/2016/MC/TTGJets_TuneCUETP8M1_13TeV-amcatnloFXFX-madspin-pythia8/NANOAODSIM/PUMoriond17_Nano25Oct2019_102X_mcRun2_asymptotic_v7_ext1-v1/40000/DADFF8CC-905A-E34A-84F8-B1B6135E7463.root
9 root://cmseos.fnal.gov//store/user/lpcstop/noreplica/mequinna/NanoAODv6/2016/MC/TTGJets_TuneCUETP8M1_13TeV-amcatnloFXFX-madspin-pythia8/NANOAODSIM/PUMoriond17_Nano25Oct2019_102X_mcRun2_asymptotic_v7_ext1-v1/40000/EAC28666-0ED4-BA4D-9D93-7F5E0D079065.root
10 root://cmseos.fnal.gov//store/user/lpcstop/noreplica/mequinna/NanoAODv6/2016/MC/TTGJets_TuneCUETP8M1_13TeV-amcatnloFXFX-madspin-pythia8/NANOAODSIM/PUMoriond17_Nano25Oct2019_102X_mcRun2_asymptotic_v7_ext1-v1/40000/F9E2525F-F776-664C-8BF3-7291896121C9.root
nidx 9
LHEScaleWeight0] 109357360.0 103997152.0 NORM FACTOR: 0.950984478777
LHEScaleWeight1] 110688736.0 103997152.0 NORM FACTOR: 0.93954593537
LHEScaleWeight2] 110716264.0 103997152.0 NORM FACTOR: 0.939312330842
LHEScaleWeight3] 105035000.0 103997152.0 NORM FACTOR: 0.990119026991
LHEScaleWeight4] 103997160.0 103997152.0 NORM FACTOR: 0.999999923075
LHEScaleWeight5] 100241200.0 103997152.0 NORM FACTOR: 1.03746914442
LHEScaleWeight6] 94268960.0 103997152.0 NORM FACTOR: 1.10319613158
LHEScaleWeight7] 88472568.0 103997152.0 NORM FACTOR: 1.17547341906
LHEScaleWeight8] 86969416.0 103997152.0 NORM FACTOR: 1.19578993149
ME 2016 TTGJets_TuneCUETP8M1_13TeV-amcatnloFXFX-madspin-pythia8
[0.9509844787767371, 0.9395459353696116, 0.9393123308423774, 0.990119026991003, 0.9999999230748224, 1.0374691444236501, 1.10319613157926, 1.1754734190602447, 1.1957899314857996]


