## card: datacards_spursig3/allhad4top_RT2BTALLhtbin0_2018_datacard10.txt number in set: 10
##selection: (nrestops_nosys>=2 && nbstops_nosys>=0 && ht_nosys<1100 &&  nfunky_leptons==0 && ht_nosys>=700 && nbjets_nosys>=3 && njets_nosys>=9 && (goodverticesflag && haloflag && HBHEflag && HBHEisoflag && ecaldeadcellflag && badmuonflag))*weight*btagSF_nosys*bSFcorr_nosys*puWeight*trigSF_nosys*bsWSF_nosys*bsTopSF_nosys*RTeffSF_nosys*RTmissSF_nosys*59.74*prefirewgt*

#----------------------------------------------#
#generating datacards. name: allhad4top, year2018

#number of cards in set: 12

## number of signals (i), backgrounds (j), and uncertainties (k)
---
imax: 1
jmax: 4
kmax: *
---

## input the bdt shape histograms
---
shapes * * allhad4top_2018_shapehists.root $CHANNEL_$PROCESS $CHANNEL_$PROCESS_$SYSTEMATIC
---

## list the bin label and the number of (data) events observed
---
bin  RT2BTALLhtbin0_2018
observation 751.0
---

## expected events for signal and all backgrounds in the bins
---
bin        RT2BTALLhtbin0_2018    RT2BTALLhtbin0_2018    RT2BTALLhtbin0_2018    RT2BTALLhtbin0_2018    RT2BTALLhtbin0_2018
process    TTTT    TTTT_spurious    TTX    other    DDBKG
process        0        1        2        3        4
rate       2.62496724539    2.62496724539    11.6184434891    5.00836674171    660.866
---

## list the independent sources of uncertainties, and give their effect (syst. error) on each process and bin
---
## statistical uncertainties

RT2BTALLhtbin0_2018_TTTT_stat      lnN    1.01477584908    -    -    -    -
RT2BTALLhtbin0_2018_TTTT_spurious_stat      lnN    -    1.01477584908    -    -    -
RT2BTALLhtbin0_2018_TTX_stat      lnN    -    -    1.13622074612    -    -
RT2BTALLhtbin0_2018_other_stat      lnN    -    -    -    1.26828830506    -
RT2BTALLhtbin0_2018_DDBKG_stat      lnN    -    -    -    -    1.08214221945

---
## systematic uncertainties

lumi_uncorr_2018   lnN    1.015    1.015    1.015    1.015    -    
lumi_corr16_17_18   lnN    1.020    1.020    1.020    1.015    -    
lumi_corr17_18   lnN    1.002    1.002    1.002    1.002      -   
elveto_2018   lnN    1.02767     1.02767     1.01011    -   -  
muveto_2018   lnN    1.00131     1.00131     1.00009    -   -  
cross_section   lnN   -    -    1.26  -   -  
data-pred_norm_disagreement_RT2BTALL_2018    lnN        -         -         -      -    1.111

---
## shape uncertainties

jes_2018   shape     1.0   1.0   1.0  1.0   - 
jer_2018   shape     1.0   1.0   1.0  1.0   - 
pileup_2018   shape     1.0   1.0   1.0  1.0   - 
trigger_2018   shape     1.0   1.0   1.0  1.0   - 
btagLF  shape     1.0    1.0    1.0    1.0  - 
btagHF  shape     1.0    1.0    1.0    1.0  - 
btagLFstats1_2018   shape     1.0   1.0   1.0  1.0   - 
btagHFstats1_2018   shape     1.0   1.0   1.0  1.0   - 
btagLFstats2_2018   shape     1.0   1.0   1.0  1.0   - 
btagHFstats2_2018   shape     1.0   1.0   1.0  1.0   - 
btagCFerr1  shape     1.0    1.0    1.0    1.0  - 
btagCFerr2  shape     1.0    1.0    1.0    1.0  - 
DeepAK8TopSF_2018   shape     1.0   1.0   1.0  1.0   - 
DeepAK8WSF_2018   shape     1.0   1.0   1.0  1.0   - 
isr_TTTT  shape     1.0    1.0    -    -  -  
isr_TTX  shape     -    -  1.0    -   -  
fsr_TTTT  shape     1.0    1.0    -    -  -  
fsr_TTX  shape     -    -  1.0    -   -  
pdf  shape     1.0    1.0    1.0    -   -   
ME_TTTT  shape     1.0    1.0    -    -  -  
ME_TTX  shape     -    -  1.0    -   -  
ResTopEff_2018   shape     1.0   1.0   1.0  1.0   - 
ResTopMiss_2018   shape     1.0   1.0   1.0  1.0   - 

---

RT2BTALLhtbin0_2018 autoMCStats 0 1
---

---
## spurious signal 

sig_constraint  param  0.0 1.329
sig_constraint  rateParam  RT2BTALLhtbin0_2018 TTTT_spurious 0.0 [-100,100]
