## card: datacards_noMETTX/allhad4top_RT1BT0htbin2_2018_datacard0.txt number in set: 0
##selection: (nrestops_nosys==1 && nbstops_nosys==0 && ht_nosys>=900 && ht_nosys<1000 &&  nfunky_leptons==0 && ht_nosys>=700 && nbjets_nosys>=3 && njets_nosys>=9 && (goodverticesflag && haloflag && HBHEflag && HBHEisoflag && ecaldeadcellflag && badmuonflag))*weight*btagSF_nosys*bSFcorr_nosys*puWeight*trigSF_nosys*bsWSF_nosys*bsTopSF_nosys*RTeffSF_nosys*RTmissSF_nosys*59.74*prefirewgt*

#----------------------------------------------#
#generating datacards. name: allhad4top, year2018

#number of cards in set: 12

## number of signals (i), backgrounds (j), and uncertainties (k)
---
imax: 1
jmax: 3
kmax: *
---

## input the bdt shape histograms
---
shapes * * allhad4top_2018_shapehists.root $CHANNEL_$PROCESS $CHANNEL_$PROCESS_$SYSTEMATIC
---

## list the bin label and the number of (data) events observed
---
bin  RT1BT0htbin2_2018
observation 2234.0
---

## expected events for signal and all backgrounds in the bins
---
bin        RT1BT0htbin2_2018    RT1BT0htbin2_2018    RT1BT0htbin2_2018    RT1BT0htbin2_2018
process    TTTT    TTX    other    DDBKG
process        0        1        2        3
rate       3.59940541536    29.3616182804    40.2031857967    2024.165
---

## list the independent sources of uncertainties, and give their effect (syst. error) on each process and bin
---
## statistical uncertainties

RT1BT0htbin2_2018_TTTT_stat      lnN    1.01297328063    -    -    -
RT1BT0htbin2_2018_TTX_stat      lnN    -    1.07193236385    -    -
RT1BT0htbin2_2018_other_stat      lnN    -    -    1.09243487098    -
RT1BT0htbin2_2018_DDBKG_stat      lnN    -    -    -    1.04838291345

---
## systematic uncertainties

lumi_uncorr_2018   lnN    1.015    1.015    1.015    -    
lumi_corr16_17_18   lnN    1.020    1.020    1.020    -    
lumi_corr17_18   lnN    1.002    1.002    1.002    -    
elveto_2018   lnN    1.03222     1.00608    -    -    
muveto_2018   lnN    1.00127     1.00030    -    -    
cross_section   lnN   -   1.25    -    -    
data-pred_norm_disagreement_2018    lnN        -         -         -      1.094

---
## shape uncertainties

jes_2018   shape     1.0   1.0   1.0    - 
jer_2018   shape     1.0   1.0   1.0    - 
pileup_2018   shape     1.0   1.0   1.0    - 
trigger_2018   shape     1.0   1.0   1.0    - 
btagLF  shape     1.0    1.0    1.0    - 
btagHF  shape     1.0    1.0    1.0    - 
btagLFstats1_2018   shape     1.0   1.0   1.0    - 
btagHFstats1_2018   shape     1.0   1.0   1.0    - 
btagLFstats2_2018   shape     1.0   1.0   1.0    - 
btagHFstats2_2018   shape     1.0   1.0   1.0    - 
btagCFerr1  shape     1.0    1.0    1.0    - 
btagCFerr2  shape     1.0    1.0    1.0    - 
DeepAK8TopSF_2018   shape     1.0   1.0   1.0    - 
DeepAK8WSF_2018   shape     1.0   1.0   1.0    - 
isr_TTTT  shape     1.0    -    -    -  
isr_TTX  shape     -    1.0    -    -  
fsr_TTTT  shape     1.0    -    -    -  
fsr_TTX  shape     -    1.0    -    -  
pdf  shape     1.0    1.0    -    - 
ResTopEff_2018   shape     1.0   1.0   1.0    - 
ResTopMiss_2018   shape     1.0   1.0   1.0    - 
ME_TTTT  shape     1.0    -    -    -  

---

RT1BT0htbin2_2018 autoMCStats 0 1
---

