## card: datacards_spursig2/allhad4top_RT1BT0htbin1_2016_datacard3.txt number in set: 3
##selection: (nrestops_nosys==1 && nbstops_nosys==0 && ht_nosys>=800 && ht_nosys<900 &&  nfunky_leptons==0 && ht_nosys>=700 && nbjets_nosys>=3 && njets_nosys>=9 && (goodverticesflag && haloflag && HBHEflag && HBHEisoflag && ecaldeadcellflag && badmuonflag && eeBadScFilterflag))*weight*btagSF_nosys*bSFcorr_nosys*puWeight*trigSF_nosys*bsWSF_nosys*bsTopSF_nosys*RTeffSF_nosys*RTmissSF_nosys*36.33*prefirewgt*

#----------------------------------------------#
#generating datacards. name: allhad4top, year2016

#number of cards in set: 12

## number of signals (i), backgrounds (j), and uncertainties (k)
---
imax: 1
jmax: 4
kmax: *
---

## input the bdt shape histograms
---
shapes * * allhad4top_2016_shapehists.root $CHANNEL_$PROCESS $CHANNEL_$PROCESS_$SYSTEMATIC
---

## list the bin label and the number of (data) events observed
---
bin  RT1BT0htbin1_2016
observation 1405.0
---

## expected events for signal and all backgrounds in the bins
---
bin        RT1BT0htbin1_2016    RT1BT0htbin1_2016    RT1BT0htbin1_2016    RT1BT0htbin1_2016    RT1BT0htbin1_2016
process    TTTT    TTTT_spurious    TTX    other    DDBKG
process        0        1        2        3        4
rate       2.55662598461    2.55662598461    33.7047624588    41.658188343    1502.071
---

## list the independent sources of uncertainties, and give their effect (syst. error) on each process and bin
---
## statistical uncertainties

RT1BT0htbin1_2016_TTTT_stat      lnN    1.02306721304    -    -    -    -
RT1BT0htbin1_2016_TTTT_spurious_stat      lnN    -    1.02306721304    -    -    -
RT1BT0htbin1_2016_TTX_stat      lnN    -    -    1.04878584206    -    -
RT1BT0htbin1_2016_other_stat      lnN    -    -    -    1.06877945791    -
RT1BT0htbin1_2016_DDBKG_stat      lnN    -    -    -    -    1.04763023852

---
## systematic uncertainties

lumi_uncorr_2016   lnN    1.010    1.010    1.010    1.010    -    
lumi_corr16_17_18   lnN    1.006    1.006    1.006    1.010    -    
elveto_2016   lnN    1.03397     1.03397     1.03092    -   -  
muveto_2016   lnN    1.01554     1.01554     1.00012    -   -  
prefire_2016   lnN    1.00447     1.00447     1.00344    -    -  
cross_section   lnN   -    -    1.26  -   -  
data-pred_norm_disagreement_RT1BT0_2016    lnN        -         -         -      -    1.101

---
## shape uncertainties

jes_2016   shape     1.0   1.0   1.0  1.0   - 
jer_2016   shape     1.0   1.0   1.0  1.0   - 
pileup_2016   shape     1.0   1.0   1.0  1.0   - 
trigger_2016   shape     1.0   1.0   1.0  1.0   - 
btagLF  shape     1.0    1.0    1.0    1.0  - 
btagHF  shape     1.0    1.0    1.0    1.0  - 
btagLFstats1_2016   shape     1.0   1.0   1.0  1.0   - 
btagHFstats1_2016   shape     1.0   1.0   1.0  1.0   - 
btagLFstats2_2016   shape     1.0   1.0   1.0  1.0   - 
btagHFstats2_2016   shape     1.0   1.0   1.0  1.0   - 
btagCFerr1  shape     1.0    1.0    1.0    1.0  - 
btagCFerr2  shape     1.0    1.0    1.0    1.0  - 
DeepAK8TopSF_2016   shape     1.0   1.0   1.0  1.0   - 
DeepAK8WSF_2016   shape     1.0   1.0   1.0  1.0   - 
isr_TTTT  shape     1.0    1.0    -    -  -  
isr_TTX  shape     -    -  1.0    -   -  
fsr_TTTT  shape     1.0    1.0    -    -  -  
fsr_TTX  shape     -    -  1.0    -   -  
pdf  shape     1.0    1.0    1.0    -   -   
ME_TTTT  shape     1.0    1.0    -    -  -  
ME_TTX  shape     -    -  1.0    -   -  
ResTopEff_2016   shape     1.0   1.0   1.0  1.0   - 
ResTopMiss_2016   shape     1.0   1.0   1.0  1.0   - 

---

RT1BT0htbin1_2016 autoMCStats 0 1
---

---
## spurious signal 

sig_constraint  param  0.0 37.81
sig_constraint  rateParam  RT1BT0htbin1_2016 TTTT_spurious_RT1BT0htbin1_2016 0.0 [-100,100]
