## card: datacards_splitTTX/allhad4top_RT1BT0htbin3_2016_datacard1.txt number in set: 1
##selection: (nrestops_nosys==1 && nbstops_nosys==0 && ht_nosys>=1000 && ht_nosys<1100 &&  nfunky_leptons==0 && ht_nosys>=700 && nbjets_nosys>=3 && njets_nosys>=9 && (goodverticesflag && haloflag && HBHEflag && HBHEisoflag && ecaldeadcellflag && badmuonflag && eeBadScFilterflag))*weight*btagSF_nosys*bSFcorr_nosys*puWeight*trigSF_nosys*bsWSF_nosys*bsTopSF_nosys*RTeffSF_nosys*RTmissSF_nosys*36.33*prefirewgt*

#----------------------------------------------#
#generating datacards. name: allhad4top, year2016

#number of cards in set: 12

## number of signals (i), backgrounds (j), and uncertainties (k)
---
imax: 1
jmax: 5
kmax: *
---

## input the bdt shape histograms
---
shapes * * allhad4top_2016_shapehists.root $CHANNEL_$PROCESS $CHANNEL_$PROCESS_$SYSTEMATIC
---

## list the bin label and the number of (data) events observed
---
bin  RT1BT0htbin3_2016
observation 945.0
---

## expected events for signal and all backgrounds in the bins
---
bin        RT1BT0htbin3_2016    RT1BT0htbin3_2016    RT1BT0htbin3_2016    RT1BT0htbin3_2016    RT1BT0htbin3_2016    RT1BT0htbin3_2016
process    TTTT    TTH    TTW    TTOther    other    DDBKG
process        0        1        2        3        4        5
rate       2.01523744315    9.71918439865    1.68182612956    6.57890729606    30.194270134    989.389
---

## list the independent sources of uncertainties, and give their effect (syst. error) on each process and bin
---
## statistical uncertainties

RT1BT0htbin3_2016_TTTT_stat      lnN    1.02558270403    -    -    -    -    -
RT1BT0htbin3_2016_TTH_stat      lnN    -    1.01129252947    -    -    -    -
RT1BT0htbin3_2016_TTW_stat      lnN    -    -    1.25921187396    -    -    -
RT1BT0htbin3_2016_TTOther_stat      lnN    -    -    -    1.21931404262    -    -
RT1BT0htbin3_2016_other_stat      lnN    -    -    -    -    1.07309401346    -
RT1BT0htbin3_2016_DDBKG_stat      lnN    -    -    -    -    -    1.06995933854

---
## systematic uncertainties

lumi_uncorr_2016   lnN    1.010    1.010    1.010    1.010    1.010    -    
lumi_corr16_17_18   lnN    1.006    1.006    1.006    1.006    1.006    -    
elveto_2016   lnN    1.02698     1.02723     1.02723     1.02723    -    -    
muveto_2016   lnN    1.00232     1.00165     1.00165     1.00165    -    -    
prefire_2016   lnN    1.00453     1.0036     1.0036     1.0036    -    -    
cross_section   lnU   -   1.50   1.23   1.23     -    -    
data_pred_norm_disagreement_2016    lnN        -      -         -         -         -      1.136
data_pred_shape_disagreement_2016  shape   -    -    -    -    -    1.0  

---
## shape uncertainties

jes_2016   shape     1.0    1.0   1.0   1.0   1.0    - 
jer_2016   shape     1.0    1.0   1.0   1.0   1.0    - 
pileup_2016   shape     1.0    1.0   1.0   1.0   1.0    - 
trigger_2016   shape     1.0    1.0   1.0   1.0   1.0    - 
btagLF  shape     1.0    1.0    1.0    1.0    1.0    - 
btagHF  shape     1.0    1.0    1.0    1.0    1.0    - 
btagLFstats1_2016   shape     1.0    1.0   1.0   1.0   1.0    - 
btagHFstats1_2016   shape     1.0    1.0   1.0   1.0   1.0    - 
btagLFstats2_2016   shape     1.0    1.0   1.0   1.0   1.0    - 
btagHFstats2_2016   shape     1.0    1.0   1.0   1.0   1.0    - 
btagCFerr1  shape     1.0    1.0    1.0    1.0    1.0    - 
btagCFerr2  shape     1.0    1.0    1.0    1.0    1.0    - 
DeepAK8TopSF_2016   shape     1.0    1.0   1.0   1.0   1.0    - 
DeepAK8WSF_2016   shape     1.0    1.0   1.0   1.0   1.0    - 
isr_TTTT  shape     1.0    -    -   -    -    -  
isr_TTH  shape     -    1.0    -    -    -    -  
isr_TTW  shape     -    -    1.0     -    -    -  
fsr_TTTT  shape     1.0    -    -   -    -    -  
fsr_TTH  shape     -    1.0    -    -    -    -  
fsr_TTW  shape     -    -    1.0     -    -    -  
pdf  shape     1.0    1.0    1.0      -     -     - 
ME_TTTT  shape     1.0    -    -   -    -    -  
ME_TTH  shape     -    1.0    -    -    -    -  
ME_TTW  shape     -    -    1.0     -    -    -  
ResTopEff_2016   shape     1.0    1.0   1.0   1.0   1.0    - 
ResTopMiss_2016   shape     1.0    1.0   1.0   1.0   1.0    - 

---

RT1BT0htbin3_2016 autoMCStats 0 1
---

