## card: datacards_splitTTX/allhad4top_RT1BT0htbin6_2016_datacard4.txt number in set: 4
##selection: (nrestops_nosys==1 && nbstops_nosys==0 && ht_nosys>=1300 && ht_nosys<1500 &&  nfunky_leptons==0 && ht_nosys>=700 && nbjets_nosys>=3 && njets_nosys>=9 && (goodverticesflag && haloflag && HBHEflag && HBHEisoflag && ecaldeadcellflag && badmuonflag && eeBadScFilterflag))*weight*btagSF_nosys*bSFcorr_nosys*puWeight*trigSF_nosys*bsWSF_nosys*bsTopSF_nosys*RTeffSF_nosys*RTmissSF_nosys*36.33*prefirewgt*

#----------------------------------------------#
#generating datacards. name: allhad4top, year2016

#number of cards in set: 12

## number of signals (i), backgrounds (j), and uncertainties (k)
---
imax: 1
jmax: 5
kmax: *
---

## input the bdt shape histograms
---
shapes * * allhad4top_2016_shapehists.root $CHANNEL_$PROCESS $CHANNEL_$PROCESS_$SYSTEMATIC
---

## list the bin label and the number of (data) events observed
---
bin  RT1BT0htbin6_2016
observation 733.0
---

## expected events for signal and all backgrounds in the bins
---
bin        RT1BT0htbin6_2016    RT1BT0htbin6_2016    RT1BT0htbin6_2016    RT1BT0htbin6_2016    RT1BT0htbin6_2016    RT1BT0htbin6_2016
process    TTTT    TTH    TTW    TTOther    other    DDBKG
process        0        1        2        3        4        5
rate       1.44354962837    5.10065677762    1.27356363088    5.73247894645    23.1816183925    663.752
---

## list the independent sources of uncertainties, and give their effect (syst. error) on each process and bin
---
## statistical uncertainties

RT1BT0htbin6_2016_TTTT_stat      lnN    1.02863034001    -    -    -    -    -
RT1BT0htbin6_2016_TTH_stat      lnN    -    1.01392914083    -    -    -    -
RT1BT0htbin6_2016_TTW_stat      lnN    -    -    1.27801741762    -    -    -
RT1BT0htbin6_2016_TTOther_stat      lnN    -    -    -    1.18331845669    -    -
RT1BT0htbin6_2016_other_stat      lnN    -    -    -    -    1.11631338602    -
RT1BT0htbin6_2016_DDBKG_stat      lnN    -    -    -    -    -    1.09984753342

---
## systematic uncertainties

lumi_uncorr_2016   lnN    1.010    1.010    1.010    1.010    1.010    -    
lumi_corr16_17_18   lnN    1.006    1.006    1.006    1.006    1.006    -    
elveto_2016   lnN    1.05360     1.01347     1.01347     1.01347    -    -    
muveto_2016   lnN    1.01173     1.00088     1.00088     1.00088    -    -    
prefire_2016   lnN    1.00460     1.00368     1.00368     1.00368    -    -    
cross_section   lnU   -   1.50   1.23   1.23     -    -    
data_pred_norm_disagreement_2016    lnN        -      -         -         -         -      1.175
data_pred_shape_disagreement_2016  shape   -    -    -    -    -    1.0  

---
## shape uncertainties

jes_2016   shape     1.0    1.0   1.0   1.0   1.0    - 
jer_2016   shape     1.0    1.0   1.0   1.0   1.0    - 
pileup_2016   shape     1.0    1.0   1.0   1.0   1.0    - 
trigger_2016   shape     1.0    1.0   1.0   1.0   1.0    - 
btagLF  shape     1.0    1.0    1.0    1.0    1.0    - 
btagHF  shape     1.0    1.0    1.0    1.0    1.0    - 
btagLFstats1_2016   shape     1.0    1.0   1.0   1.0   1.0    - 
btagHFstats1_2016   shape     1.0    1.0   1.0   1.0   1.0    - 
btagLFstats2_2016   shape     1.0    1.0   1.0   1.0   1.0    - 
btagHFstats2_2016   shape     1.0    1.0   1.0   1.0   1.0    - 
btagCFerr1  shape     1.0    1.0    1.0    1.0    1.0    - 
btagCFerr2  shape     1.0    1.0    1.0    1.0    1.0    - 
DeepAK8TopSF_2016   shape     1.0    1.0   1.0   1.0   1.0    - 
DeepAK8WSF_2016   shape     1.0    1.0   1.0   1.0   1.0    - 
isr_TTTT  shape     1.0    -    -   -    -    -  
isr_TTH  shape     -    1.0    -    -    -    -  
isr_TTW  shape     -    -    1.0     -    -    -  
fsr_TTTT  shape     1.0    -    -   -    -    -  
fsr_TTH  shape     -    1.0    -    -    -    -  
fsr_TTW  shape     -    -    1.0     -    -    -  
pdf  shape     1.0    1.0    1.0      -     -     - 
ME_TTTT  shape     1.0    -    -   -    -    -  
ME_TTH  shape     -    1.0    -    -    -    -  
ME_TTW  shape     -    -    1.0     -    -    -  
ResTopEff_2016   shape     1.0    1.0   1.0   1.0   1.0    - 
ResTopMiss_2016   shape     1.0    1.0   1.0   1.0   1.0    - 

---

RT1BT0htbin6_2016 autoMCStats 0 1
---

